"EvTime","Gen.Active Power","Gen.Active Power","Gen.Active Power","Gen.Active Power","Entropy"
"26/06/2016 05:00:00","149.74","150.6","150.2","150.27","7.49"
"26/06/2016 05:01:00","149.516","150.61","150.25","149.71","7.49"
"26/06/2016 05:02:00","149.617","150.79","150.26","150.02","7.49"
"26/06/2016 05:03:00","149.885","150.75","150.32","151.03","7.49"
"26/06/2016 05:04:00","150.129","150.61","150.33","150.97","7.49"
"26/06/2016 05:05:00","149.783","150.77","150.15","149.82","7.49"
"26/06/2016 05:06:00","149.7","150.69","150.18","149.72","7.49"
"26/06/2016 05:07:00","149.602","150.68","150.13","149.76","7.49"
"26/06/2016 05:08:00","149.551","150.64","150.26","150.25","7.49"
"26/06/2016 05:09:00","149.739","150.63","150.29","150.58","7.49"
"26/06/2016 05:10:00","149.549","150.66","150.39","151.36","7.49"
"26/06/2016 05:11:00","149.358","150.8","150.44","150.97","7.48"
"26/06/2016 05:12:00","149.422","150.62","150.24","150.77","7.48"
"26/06/2016 05:13:00","149.291","150.63","150.15","150.0","7.48"
"26/06/2016 05:14:00","149.158","150.38","150.0","149.68","7.48"
"26/06/2016 05:15:00","149.131","150.5","150.24","150.31","7.48"
"26/06/2016 05:16:00","149.347","150.72","150.21","150.52","7.48"
"26/06/2016 05:17:00","149.618","150.69","150.18","149.77","7.48"
"26/06/2016 05:18:00","149.796","150.72","150.22","150.48","7.49"
"26/06/2016 05:19:00","149.731","150.75","150.28","149.83","7.49"
"26/06/2016 05:20:00","149.811","150.57","150.23","149.82","7.49"
"26/06/2016 05:21:00","150.182","150.7","150.22","150.08","7.49"
"26/06/2016 05:22:00","150.021","150.68","150.26","150.46","7.49"
"26/06/2016 05:23:00","149.904","150.74","150.25","150.51","7.49"
"26/06/2016 05:24:00","149.738","150.68","150.19","149.77","7.49"
"26/06/2016 05:25:00","149.689","150.66","150.24","149.71","7.5"
"26/06/2016 05:26:00","149.739","150.81","150.42","150.31","7.5"
"26/06/2016 05:27:00","150.122","150.85","150.55","151.52","7.5"
"26/06/2016 05:28:00","150.333","150.85","150.7","151.73","7.5"
"26/06/2016 05:29:00","150.658","150.77","150.25","150.37","7.5"
"26/06/2016 05:30:00","149.549","150.63","150.21","149.71","7.5"
"26/06/2016 05:31:00","149.629","150.72","150.22","149.98","7.5"
"26/06/2016 05:32:00","149.634","150.74","150.21","150.27","7.5"
"26/06/2016 05:33:00","149.856","150.7","150.28","150.34","7.5"
"26/06/2016 05:34:00","149.708","150.62","150.19","149.75","7.5"
"26/06/2016 05:35:00","149.689","150.7","150.28","149.72","7.5"
"26/06/2016 05:36:00","149.534","150.68","150.24","149.7","7.5"
"26/06/2016 05:37:00","149.628","150.67","150.22","149.72","7.5"
"26/06/2016 05:38:00","149.603","150.64","150.07","149.8","7.5"
"26/06/2016 05:39:00","149.441","150.7","150.26","149.84","7.5"
"26/06/2016 05:40:00","149.546","150.67","150.11","149.8","7.5"
"26/06/2016 05:41:00","149.46","150.68","150.21","149.71","7.5"
"26/06/2016 05:42:00","149.77","150.63","150.3","150.29","7.5"
"26/06/2016 05:43:00","149.554","150.85","150.37","151.22","7.5"
"26/06/2016 05:44:00","149.742","150.71","150.18","150.4","7.5"
"26/06/2016 05:45:00","150.035","150.66","150.29","151.08","7.5"
"26/06/2016 05:46:00","149.862","150.74","150.2","149.85","7.5"
"26/06/2016 05:47:00","149.966","150.68","150.24","149.89","7.5"
"26/06/2016 05:48:00","149.847","150.8","150.26","149.69","7.5"
"26/06/2016 05:49:00","149.484","150.72","150.15","149.75","7.5"
"26/06/2016 05:50:00","149.254","150.57","150.2","149.8","7.5"
"26/06/2016 05:51:00","149.559","150.63","150.23","149.73","7.5"
"26/06/2016 05:52:00","149.907","150.63","150.25","149.86","7.5"
"26/06/2016 05:53:00","149.553","150.6","150.14","149.82","7.5"
"26/06/2016 05:54:00","149.57","150.74","150.28","149.77","7.5"
"26/06/2016 05:55:00","149.56","150.76","150.22","149.74","7.49"
"26/06/2016 05:56:00","149.679","150.79","150.24","149.79","7.49"
"26/06/2016 05:57:00","149.615","150.64","150.28","149.81","7.49"
"26/06/2016 05:58:00","149.403","150.66","150.13","149.77","7.49"
"26/06/2016 05:59:00","149.583","150.74","150.22","149.69","7.49"
"26/06/2016 06:00:00","149.381","150.63","150.27","149.8","7.49"
"26/06/2016 06:01:00","149.266","150.66","150.2","149.93","7.48"
"26/06/2016 06:02:00","149.151","150.57","150.28","149.77","7.48"
"26/06/2016 06:03:00","149.108","150.66","150.2","149.74","7.48"
"26/06/2016 06:04:00","148.972","150.86","150.25","149.7","7.47"
"26/06/2016 06:05:00","149.108","150.69","150.21","149.73","7.47"
"26/06/2016 06:06:00","149.266","150.74","150.24","149.74","7.47"
"26/06/2016 06:07:00","148.94","150.62","150.1","149.74","7.47"
"26/06/2016 06:08:00","148.737","150.55","150.19","149.71","7.47"
"26/06/2016 06:09:00","148.864","150.52","150.14","149.72","7.47"
"26/06/2016 06:10:00","148.753","150.7","150.3","149.92","7.47"
"26/06/2016 06:11:00","148.474","150.56","150.17","150.34","7.47"
"26/06/2016 06:12:00","148.153","150.69","150.2","149.68","7.47"
"26/06/2016 06:13:00","148.087","150.8","150.38","150.52","7.47"
"26/06/2016 06:14:00","148.073","150.8","150.58","150.97","7.47"
"26/06/2016 06:15:00","148.085","150.72","150.22","149.89","7.47"
"26/06/2016 06:16:00","147.861","150.59","150.2","149.83","7.48"
"26/06/2016 06:17:00","147.56","150.43","150.06","149.74","7.48"
"26/06/2016 06:18:00","147.633","150.65","150.37","149.97","7.48"
"26/06/2016 06:19:00","147.896","150.87","150.26","149.76","7.48"
"26/06/2016 06:20:00","148.255","150.74","150.25","149.69","7.49"
"26/06/2016 06:21:00","148.613","150.68","150.19","149.67","7.49"
"26/06/2016 06:22:00","148.803","150.66","150.26","149.72","7.49"
"26/06/2016 06:23:00","149.158","150.7","150.26","149.72","7.49"
"26/06/2016 06:24:00","150.145","150.71","150.28","149.68","7.5"
"26/06/2016 06:25:00","150.607","150.78","150.19","149.8","7.5"
"26/06/2016 06:26:00","149.654","150.59","150.16","149.71","7.5"
"26/06/2016 06:27:00","149.291","150.42","150.08","149.69","7.5"
"26/06/2016 06:28:00","149.417","150.44","150.28","149.82","7.5"
"26/06/2016 06:29:00","149.607","150.49","150.19","149.74","7.5"
"26/06/2016 06:30:00","149.553","150.78","150.15","149.72","7.5"
"26/06/2016 06:31:00","149.316","150.84","150.19","149.72","7.5"
"26/06/2016 06:32:00","149.271","150.62","150.19","149.74","7.49"
"26/06/2016 06:33:00","149.066","150.67","150.26","149.72","7.49"
"26/06/2016 06:34:00","148.632","150.54","150.17","150.35","7.49"
"26/06/2016 06:35:00","148.152","150.52","149.95","150.12","7.49"
"26/06/2016 06:36:00","148.004","150.38","150.11","149.69","7.49"
"26/06/2016 06:37:00","148.255","150.75","150.29","149.75","7.49"
"26/06/2016 06:38:00","148.328","150.51","150.15","149.77","7.49"
"26/06/2016 06:39:00","148.634","150.62","150.2","149.69","7.49"
"26/06/2016 06:40:00","148.943","150.24","149.76","149.65","7.49"
"26/06/2016 06:41:00","148.922","150.2","150.13","149.73","7.5"
"26/06/2016 06:42:00","149.477","150.7","150.07","149.72","7.5"
"26/06/2016 06:43:00","150.14","150.44","150.16","149.69","7.5"
"26/06/2016 06:44:00","150.232","150.66","150.17","149.66","7.5"
"26/06/2016 06:45:00","149.355","150.52","150.12","149.64","7.5"
"26/06/2016 06:46:00","149.675","150.6","150.2","149.7","7.5"
"26/06/2016 06:47:00","149.512","150.66","150.18","149.76","7.5"
"26/06/2016 06:48:00","149.741","150.66","150.46","150.74","7.5"
"26/06/2016 06:49:00","149.864","150.72","150.28","150.7","7.5"
"26/06/2016 06:50:00","149.932","150.58","150.18","149.63","7.5"
"26/06/2016 06:51:00","149.544","150.67","150.17","149.69","7.5"
"26/06/2016 06:52:00","149.481","150.67","150.22","149.71","7.5"
"26/06/2016 06:53:00","149.422","150.44","150.15","149.63","7.5"
"26/06/2016 06:54:00","149.529","150.54","150.28","149.73","7.5"
"26/06/2016 06:55:00","149.534","150.63","150.19","149.75","7.5"
"26/06/2016 06:56:00","149.215","150.4","149.94","149.63","7.5"
"26/06/2016 06:57:00","149.549","150.61","150.23","150.08","7.5"
"26/06/2016 06:58:00","149.656","150.68","150.07","149.79","7.5"
"26/06/2016 06:59:00","149.034","150.25","150.01","149.76","7.5"
"26/06/2016 07:00:00","149.563","150.62","150.3","149.75","7.5"
"26/06/2016 07:01:00","149.652","150.83","150.19","149.69","7.5"
"26/06/2016 07:02:00","149.447","150.71","150.28","149.83","7.5"
"26/06/2016 07:03:00","149.454","150.56","150.15","149.81","7.5"
"26/06/2016 07:04:00","149.459","150.56","150.28","149.77","7.49"
"26/06/2016 07:05:00","149.292","150.62","150.23","149.93","7.49"
"26/06/2016 07:06:00","148.628","150.59","150.22","149.96","7.49"
"26/06/2016 07:07:00","148.3","150.66","150.17","149.64","7.49"
"26/06/2016 07:08:00","148.29","150.58","150.26","149.72","7.49"
"26/06/2016 07:09:00","148.389","150.62","150.2","149.67","7.49"
"26/06/2016 07:10:00","148.51","150.54","150.17","149.73","7.49"
"26/06/2016 07:11:00","148.639","150.13","150.02","149.77","7.49"
"26/06/2016 07:12:00","148.691","150.66","150.31","149.9","7.49"
"26/06/2016 07:13:00","148.825","150.73","150.46","151.31","7.49"
"26/06/2016 07:14:00","148.821","150.62","150.19","150.02","7.49"
"26/06/2016 07:15:00","148.85","150.7","150.18","149.7","7.49"
"26/06/2016 07:16:00","149.214","150.76","150.19","149.98","7.5"
"26/06/2016 07:17:00","149.571","150.76","150.13","149.69","7.5"
"26/06/2016 07:18:00","149.785","150.51","150.18","149.77","7.5"
"26/06/2016 07:19:00","149.746","150.62","150.13","149.68","7.5"
"26/06/2016 07:20:00","149.679","150.72","150.12","149.73","7.51"
"26/06/2016 07:21:00","149.862","150.61","150.24","149.77","7.51"
"26/06/2016 07:22:00","149.971","150.75","150.27","149.76","7.51"
"26/06/2016 07:23:00","149.758","150.62","150.23","149.72","7.51"
"26/06/2016 07:24:00","149.663","150.67","150.19","149.72","7.51"
"26/06/2016 07:25:00","149.487","150.49","150.0","149.73","7.51"
"26/06/2016 07:26:00","149.296","150.58","150.14","149.78","7.51"
"26/06/2016 07:27:00","149.328","150.62","150.15","149.76","7.51"
"26/06/2016 07:28:00","149.539","150.64","150.22","149.67","7.51"
"26/06/2016 07:29:00","149.52","150.7","150.22","149.78","7.5"
"26/06/2016 07:30:00","149.499","150.65","150.15","149.77","7.5"
"26/06/2016 07:31:00","149.445","150.57","150.12","149.77","7.5"
"26/06/2016 07:32:00","149.368","150.64","150.26","149.72","7.5"
"26/06/2016 07:33:00","149.311","150.56","150.17","149.69","7.5"
"26/06/2016 07:34:00","149.037","150.58","150.23","149.77","7.5"
"26/06/2016 07:35:00","149.265","150.65","150.11","149.83","7.5"
"26/06/2016 07:36:00","149.969","150.49","150.17","149.77","7.5"
"26/06/2016 07:37:00","150.373","150.64","150.14","149.73","7.5"
"26/06/2016 07:38:00","149.722","150.68","150.22","149.68","7.5"
"26/06/2016 07:39:00","149.438","150.57","150.15","149.76","7.5"
"26/06/2016 07:40:00","149.385","150.58","150.11","149.73","7.49"
"26/06/2016 07:41:00","149.076","150.61","150.14","149.69","7.49"
"26/06/2016 07:42:00","148.713","149.98","149.69","149.67","7.49"
"26/06/2016 07:43:00","148.793","150.4","150.1","149.71","7.49"
"26/06/2016 07:44:00","148.595","150.74","150.2","149.79","7.48"
"26/06/2016 07:45:00","148.509","150.62","150.16","149.68","7.48"
"26/06/2016 07:46:00","148.537","150.58","150.21","149.97","7.48"
"26/06/2016 07:47:00","148.374","150.52","150.25","149.77","7.48"
"26/06/2016 07:48:00","148.261","150.46","150.23","149.81","7.48"
"26/06/2016 07:49:00","148.408","150.7","150.17","149.78","7.48"
"26/06/2016 07:50:00","148.668","150.78","150.2","149.78","7.48"
"26/06/2016 07:51:00","148.729","150.58","150.2","149.8","7.48"
"26/06/2016 07:52:00","148.531","150.6","150.13","149.7","7.48"
"26/06/2016 07:53:00","148.374","150.56","150.18","149.74","7.48"
"26/06/2016 07:54:00","148.269","150.53","150.22","150.34","7.48"
"26/06/2016 07:55:00","148.709","150.64","150.13","149.68","7.48"
"26/06/2016 07:56:00","148.891","150.65","150.21","149.83","7.48"
"26/06/2016 07:57:00","148.838","150.63","150.12","149.73","7.49"
"26/06/2016 07:58:00","148.868","150.47","150.23","149.74","7.49"
"26/06/2016 07:59:00","148.992","150.62","150.05","149.71","7.49"
"26/06/2016 08:00:00","148.904","150.64","150.25","149.75","7.49"
"26/06/2016 08:01:00","148.739","150.59","150.16","149.9","7.49"
"26/06/2016 08:02:00","148.499","150.58","150.33","150.5","7.49"
"26/06/2016 08:03:00","148.624","150.46","150.21","149.78","7.49"
"26/06/2016 08:04:00","148.737","150.56","150.24","150.72","7.49"
"26/06/2016 08:05:00","148.737","150.62","150.47","151.52","7.49"
"26/06/2016 08:06:00","149.047","150.57","150.29","150.95","7.49"
"26/06/2016 08:07:00","149.294","150.67","150.22","150.69","7.49"
"26/06/2016 08:08:00","149.442","150.62","150.58","151.54","7.5"
"26/06/2016 08:09:00","149.997","150.52","150.16","149.77","7.5"
"26/06/2016 08:10:00","149.897","150.65","150.24","149.8","7.5"
"26/06/2016 08:11:00","149.851","150.64","150.19","149.75","7.5"
"26/06/2016 08:12:00","150.04","150.67","150.27","149.69","7.5"
"26/06/2016 08:13:00","149.865","150.66","150.12","149.77","7.51"
"26/06/2016 08:14:00","149.592","150.61","150.24","150.16","7.51"
"26/06/2016 08:15:00","149.465","150.63","150.26","151.05","7.51"
"26/06/2016 08:16:00","149.184","150.57","150.31","150.52","7.51"
"26/06/2016 08:17:00","149.076","150.58","150.15","149.74","7.51"
"26/06/2016 08:18:00","149.147","150.6","150.18","149.73","7.52"
"26/06/2016 08:19:00","149.455","150.52","150.23","149.71","7.52"
"26/06/2016 08:20:00","150.099","150.63","150.21","150.64","7.52"
"26/06/2016 08:21:00","150.63","150.45","150.27","149.74","7.53"
"26/06/2016 08:22:00","150.1","150.52","150.21","149.63","7.53"
"26/06/2016 08:23:00","149.822","150.62","150.19","150.7","7.53"
"26/06/2016 08:24:00","149.667","150.59","150.28","149.83","7.53"
"26/06/2016 08:25:00","149.477","150.58","150.13","149.72","7.52"
"26/06/2016 08:26:00","149.581","150.56","150.1","149.7","7.52"
"26/06/2016 08:27:00","149.516","150.57","150.17","149.71","7.52"
"26/06/2016 08:28:00","149.281","150.58","150.14","149.81","7.51"
"26/06/2016 08:29:00","149.409","150.67","150.1","149.84","7.51"
"26/06/2016 08:30:00","149.264","150.71","150.2","149.94","7.51"
"26/06/2016 08:31:00","148.575","150.68","150.12","149.9","7.5"
"26/06/2016 08:32:00","148.247","150.53","150.16","149.79","7.5"
"26/06/2016 08:33:00","147.744","150.35","149.99","149.72","7.5"
"26/06/2016 08:34:00","147.377","150.63","150.1","149.98","7.5"
"26/06/2016 08:35:00","147.148","150.68","150.24","149.76","7.5"
"26/06/2016 08:36:00","147.109","150.66","150.15","149.72","7.5"
"26/06/2016 08:37:00","147.371","150.53","150.16","149.98","7.5"
"26/06/2016 08:38:00","148.059","150.58","150.27","149.86","7.5"
"26/06/2016 08:39:00","149.002","150.58","150.24","150.09","7.51"
"26/06/2016 08:40:00","149.653","150.57","150.08","150.07","7.51"
"26/06/2016 08:41:00","149.939","150.48","150.19","149.73","7.51"
"26/06/2016 08:42:00","150.013","150.54","150.18","149.76","7.51"
"26/06/2016 08:43:00","150.002","150.56","150.21","150.16","7.51"
"26/06/2016 08:44:00","149.729","150.58","150.19","149.94","7.51"
"26/06/2016 08:45:00","149.487","150.55","150.24","149.73","7.51"
"26/06/2016 08:46:00","149.461","150.64","150.19","150.06","7.51"
"26/06/2016 08:47:00","149.163","150.61","150.27","150.8","7.52"
"26/06/2016 08:48:00","149.135","150.58","150.27","150.02","7.52"
"26/06/2016 08:49:00","149.349","150.55","150.24","149.7","7.52"
"26/06/2016 08:50:00","149.592","150.58","150.17","149.85","7.52"
"26/06/2016 08:51:00","149.872","150.67","150.55","151.25","7.52"
"26/06/2016 08:52:00","150.832","150.64","150.3","150.57","7.52"
"26/06/2016 08:53:00","150.629","150.57","150.26","150.83","7.52"
"26/06/2016 08:54:00","149.649","150.54","150.16","149.81","7.52"
"26/06/2016 08:55:00","149.432","150.48","150.18","149.7","7.52"
"26/06/2016 08:56:00","149.699","150.54","150.17","149.88","7.52"
"26/06/2016 08:57:00","149.663","150.59","150.2","149.98","7.52"
"26/06/2016 08:58:00","150.509","150.77","150.49","151.4","7.52"
"26/06/2016 08:59:00","149.637","150.63","150.18","149.81","7.52"
"26/06/2016 09:00:00","149.634","150.65","150.17","149.7","7.52"
"26/06/2016 09:01:00","149.839","150.62","150.21","150.99","7.52"
"26/06/2016 09:02:00","149.463","150.67","150.18","149.95","7.52"
"26/06/2016 09:03:00","148.87","150.67","150.18","149.68","7.51"
"26/06/2016 09:04:00","148.641","150.6","150.16","149.93","7.51"
"26/06/2016 09:05:00","148.266","150.63","150.15","150.07","7.51"
"26/06/2016 09:06:00","148.236","150.6","150.21","149.78","7.51"
"26/06/2016 09:07:00","148.478","150.6","150.25","149.67","7.51"
"26/06/2016 09:08:00","148.965","150.58","150.21","149.72","7.51"
"26/06/2016 09:09:00","149.514","150.63","150.24","150.05","7.51"
"26/06/2016 09:10:00","150.093","150.55","150.13","150.29","7.52"
"26/06/2016 09:11:00","150.481","150.6","150.22","149.93","7.52"
"26/06/2016 09:12:00","149.783","150.6","150.13","149.8","7.52"
"26/06/2016 09:13:00","149.316","150.43","150.03","149.74","7.52"
"26/06/2016 09:14:00","149.524","150.51","150.24","149.81","7.52"
"26/06/2016 09:15:00","149.7","150.63","150.21","149.88","7.52"
"26/06/2016 09:16:00","149.861","150.53","150.23","150.2","7.52"
"26/06/2016 09:17:00","149.648","150.58","150.21","149.74","7.52"
"26/06/2016 09:18:00","149.657","150.63","150.18","149.68","7.52"
"26/06/2016 09:19:00","149.663","150.63","150.18","149.73","7.52"
"26/06/2016 09:20:00","149.707","150.58","150.13","149.94","7.52"
"26/06/2016 09:21:00","149.694","150.58","150.21","150.09","7.52"
"26/06/2016 09:22:00","149.511","150.57","150.11","149.74","7.52"
"26/06/2016 09:23:00","149.717","150.57","150.18","149.97","7.52"
"26/06/2016 09:24:00","149.635","150.6","150.18","149.75","7.52"
"26/06/2016 09:25:00","149.528","150.41","150.11","149.85","7.52"
"26/06/2016 09:26:00","149.592","150.54","150.25","149.95","7.52"
"26/06/2016 09:27:00","149.629","150.67","150.13","149.92","7.52"
"26/06/2016 09:28:00","149.525","150.62","150.21","149.92","7.51"
"26/06/2016 09:29:00","149.544","150.56","150.14","149.78","7.51"
"26/06/2016 09:30:00","149.798","150.64","150.37","150.52","7.51"
"26/06/2016 09:31:00","150.425","150.66","150.4","151.3","7.51"
"26/06/2016 09:32:00","149.408","150.47","149.99","149.74","7.51"
"26/06/2016 09:33:00","149.618","150.47","150.18","149.72","7.5"
"26/06/2016 09:34:00","149.511","150.56","150.13","149.69","7.5"
"26/06/2016 09:35:00","149.576","150.56","150.26","149.73","7.5"
"26/06/2016 09:36:00","149.521","150.55","150.1","149.98","7.5"
"26/06/2016 09:37:00","149.373","150.48","150.29","149.69","7.5"
"26/06/2016 09:38:00","149.288","150.5","150.11","149.7","7.5"
"26/06/2016 09:39:00","149.411","150.58","150.25","150.14","7.5"
"26/06/2016 09:40:00","149.553","150.56","150.21","150.45","7.5"
"26/06/2016 09:41:00","150.043","150.53","150.18","150.01","7.5"
"26/06/2016 09:42:00","150.359","150.56","150.13","149.68","7.5"
"26/06/2016 09:43:00","149.682","150.59","150.16","149.56","7.5"
"26/06/2016 09:44:00","149.648","150.59","150.14","149.7","7.5"
"26/06/2016 09:45:00","149.631","150.58","150.28","149.92","7.5"
"26/06/2016 09:46:00","149.944","150.52","150.31","150.68","7.5"
"26/06/2016 09:47:00","150.29","150.63","150.5","150.92","7.5"
"26/06/2016 09:48:00","149.801","150.52","150.2","150.6","7.51"
"26/06/2016 09:49:00","149.4","150.4","150.1","149.88","7.51"
"26/06/2016 09:50:00","149.755","150.6","150.25","150.22","7.51"
"26/06/2016 09:51:00","149.679","150.5","150.21","149.7","7.51"
"26/06/2016 09:52:00","149.601","150.49","150.18","149.67","7.51"
"26/06/2016 09:53:00","149.679","150.61","150.23","150.1","7.51"
"26/06/2016 09:54:00","149.645","150.65","150.19","150.12","7.51"
"26/06/2016 09:55:00","149.726","150.63","150.22","150.55","7.51"
"26/06/2016 09:56:00","149.609","150.63","150.23","149.74","7.51"
"26/06/2016 09:57:00","149.567","150.55","150.18","149.67","7.51"
"26/06/2016 09:58:00","149.665","150.59","150.19","149.76","7.5"
"26/06/2016 09:59:00","149.523","150.43","150.12","149.69","7.5"
"26/06/2016 10:00:00","149.398","150.48","150.16","149.7","7.5"
"26/06/2016 10:01:00","149.029","150.58","150.2","149.92","7.49"
"26/06/2016 10:02:00","148.743","150.62","150.29","150.22","7.49"
"26/06/2016 10:03:00","148.853","150.53","150.24","149.49","7.49"
"26/06/2016 10:04:00","149.023","150.53","150.19","149.92","7.49"
"26/06/2016 10:05:00","148.808","150.76","150.52","150.87","7.49"
"26/06/2016 10:06:00","148.872","150.66","150.28","151.02","7.49"
"26/06/2016 10:07:00","149.281","150.5","150.17","149.65","7.49"
"26/06/2016 10:08:00","149.743","150.71","150.26","149.76","7.49"
"26/06/2016 10:09:00","149.696","150.62","150.21","149.82","7.5"
"26/06/2016 10:10:00","149.734","150.68","150.5","150.44","7.5"
"26/06/2016 10:11:00","149.788","150.67","150.34","150.94","7.5"
"26/06/2016 10:12:00","149.789","150.55","150.17","149.67","7.5"
"26/06/2016 10:13:00","149.903","150.55","150.2","150.08","7.51"
"26/06/2016 10:14:00","150.713","150.52","150.27","149.73","7.51"
"26/06/2016 10:15:00","149.657","150.56","150.2","149.68","7.51"
"26/06/2016 10:16:00","149.274","150.35","150.01","149.68","7.51"
"26/06/2016 10:17:00","149.688","150.4","150.18","149.78","7.51"
"26/06/2016 10:18:00","149.439","150.36","150.12","149.74","7.51"
"26/06/2016 10:19:00","150.005","150.57","150.23","150.5","7.5"
"26/06/2016 10:20:00","149.645","150.55","150.19","150.3","7.5"
"26/06/2016 10:21:00","149.672","150.6","150.22","150.07","7.5"
"26/06/2016 10:22:00","149.615","150.63","150.21","149.97","7.5"
"26/06/2016 10:23:00","149.615","150.62","150.22","149.68","7.49"
"26/06/2016 10:24:00","149.44","150.43","150.12","149.74","7.49"
"26/06/2016 10:25:00","149.587","150.5","150.16","149.75","7.49"
"26/06/2016 10:26:00","149.345","150.5","150.17","149.63","7.49"
"26/06/2016 10:27:00","148.687","150.58","150.22","149.69","7.48"
"26/06/2016 10:28:00","148.307","150.61","150.13","149.76","7.48"
"26/06/2016 10:29:00","148.438","150.44","150.15","150.0","7.48"
"26/06/2016 10:30:00","148.528","150.6","150.15","150.02","7.48"
"26/06/2016 10:31:00","148.628","150.63","150.19","149.64","7.48"
"26/06/2016 10:32:00","149.122","150.63","150.15","149.67","7.48"
"26/06/2016 10:33:00","149.561","150.66","150.22","149.73","7.49"
"26/06/2016 10:34:00","149.753","150.66","150.2","149.74","7.49"
"26/06/2016 10:35:00","149.586","150.49","150.12","149.75","7.49"
"26/06/2016 10:36:00","149.492","150.39","150.12","149.73","7.49"
"26/06/2016 10:37:00","149.358","150.41","150.14","149.74","7.49"
"26/06/2016 10:38:00","149.545","150.55","150.18","149.73","7.49"
"26/06/2016 10:39:00","149.724","150.55","150.2","149.71","7.49"
"26/06/2016 10:40:00","149.757","150.5","150.27","150.86","7.5"
"26/06/2016 10:41:00","149.796","150.56","150.17","149.81","7.5"
"26/06/2016 10:42:00","150.494","150.46","150.21","150.03","7.5"
"26/06/2016 10:43:00","150.13","150.52","150.21","149.7","7.5"
"26/06/2016 10:44:00","149.902","150.6","150.23","150.72","7.5"
"26/06/2016 10:45:00","149.719","150.63","150.24","150.42","7.51"
"26/06/2016 10:46:00","149.637","150.6","150.17","149.72","7.51"
"26/06/2016 10:47:00","149.512","150.62","150.17","149.67","7.51"
"26/06/2016 10:48:00","149.5","150.43","150.18","149.67","7.51"
"26/06/2016 10:49:00","149.665","150.49","150.26","150.23","7.51"
"26/06/2016 10:50:00","149.628","150.67","150.15","149.74","7.51"
"26/06/2016 10:51:00","149.636","150.5","150.16","149.67","7.5"
"26/06/2016 10:52:00","149.579","150.56","150.27","149.71","7.5"
"26/06/2016 10:53:00","149.647","150.55","150.17","149.76","7.5"
"26/06/2016 10:54:00","149.249","150.42","150.12","149.74","7.49"
"26/06/2016 10:55:00","149.295","150.49","150.05","149.72","7.49"
"26/06/2016 10:56:00","148.915","150.46","150.26","149.72","7.49"
"26/06/2016 10:57:00","148.376","150.59","150.12","149.77","7.48"
"26/06/2016 10:58:00","148.015","150.57","150.19","149.76","7.48"
"26/06/2016 10:59:00","147.936","150.62","150.37","150.57","7.48"
"26/06/2016 11:00:00","147.937","150.53","150.28","149.94","7.48"
"26/06/2016 11:01:00","147.745","150.63","150.26","150.34","7.48"
"26/06/2016 11:02:00","147.775","150.57","150.12","149.67","7.48"
"26/06/2016 11:03:00","148.25","150.48","150.22","150.12","7.48"
"26/06/2016 11:04:00","148.512","150.52","150.06","149.9","7.48"
"26/06/2016 11:05:00","149.09","150.47","150.21","149.91","7.49"
"26/06/2016 11:06:00","149.238","150.91","150.67","151.57","7.49"
"26/06/2016 11:07:00","149.1","150.6","150.16","150.0","7.49"
"26/06/2016 11:08:00","148.945","150.64","150.18","149.74","7.49"
"26/06/2016 11:09:00","149.245","150.46","150.15","149.86","7.49"
"26/06/2016 11:10:00","149.478","150.54","150.14","149.77","7.49"
"26/06/2016 11:11:00","149.318","150.54","150.17","149.74","7.49"
"26/06/2016 11:12:00","149.029","150.51","150.12","149.78","7.49"
"26/06/2016 11:13:00","149.152","150.7","150.19","149.81","7.49"
"26/06/2016 11:14:00","149.335","150.39","150.2","149.86","7.49"
"26/06/2016 11:15:00","149.552","150.56","150.18","149.72","7.49"
"26/06/2016 11:16:00","150.03","150.43","150.05","149.67","7.49"
"26/06/2016 11:17:00","150.458","150.51","150.18","149.71","7.49"
"26/06/2016 11:18:00","149.719","150.64","150.17","149.66","7.5"
"26/06/2016 11:19:00","149.589","150.47","150.19","149.84","7.5"
"26/06/2016 11:20:00","149.694","150.51","150.14","150.06","7.5"
"26/06/2016 11:21:00","149.637","150.53","150.25","149.69","7.5"
"26/06/2016 11:22:00","150.068","150.63","150.35","150.01","7.5"
"26/06/2016 11:23:00","150.06","150.52","150.27","150.41","7.5"
"26/06/2016 11:24:00","149.611","150.59","150.22","150.58","7.5"
"26/06/2016 11:25:00","149.586","150.54","150.16","150.15","7.49"
"26/06/2016 11:26:00","149.218","150.48","150.2","149.71","7.49"
"26/06/2016 11:27:00","148.328","150.36","150.13","149.62","7.49"
"26/06/2016 11:28:00","147.709","150.59","150.24","149.66","7.48"
"26/06/2016 11:29:00","147.506","150.59","150.23","149.78","7.48"
"26/06/2016 11:30:00","147.418","150.53","150.15","149.75","7.47"
"26/06/2016 11:31:00","147.344","150.5","150.24","149.81","7.47"
"26/06/2016 11:32:00","147.299","150.52","150.14","149.88","7.47"
"26/06/2016 11:33:00","147.469","150.61","150.2","150.16","7.47"
"26/06/2016 11:34:00","147.943","150.58","150.25","150.52","7.47"
"26/06/2016 11:35:00","148.411","150.67","150.14","149.89","7.47"
"26/06/2016 11:36:00","148.643","150.56","150.01","149.72","7.47"
"26/06/2016 11:37:00","148.632","149.98","149.87","149.73","7.47"
"26/06/2016 11:38:00","148.486","150.55","150.3","149.73","7.47"
"26/06/2016 11:39:00","148.446","150.6","150.51","150.15","7.47"
"26/06/2016 11:40:00","148.171","150.65","150.27","150.96","7.48"
"26/06/2016 11:41:00","148.033","150.64","150.57","151.06","7.48"
"26/06/2016 11:42:00","148.164","150.58","150.32","151.07","7.48"
"26/06/2016 11:43:00","148.569","150.56","150.31","150.63","7.48"
"26/06/2016 11:44:00","148.869","150.66","150.66","150.9","7.48"
"26/06/2016 11:45:00","148.899","150.65","150.48","151.22","7.49"
"26/06/2016 11:46:00","148.969","150.47","150.18","151.33","7.49"
"26/06/2016 11:47:00","148.904","150.49","150.45","151.07","7.49"
"26/06/2016 11:48:00","149.039","150.58","150.23","150.09","7.49"
"26/06/2016 11:49:00","149.059","150.52","150.19","150.79","7.49"
"26/06/2016 11:50:00","149.464","150.42","150.14","149.81","7.49"
"26/06/2016 11:51:00","150.198","150.46","150.19","149.69","7.5"
"26/06/2016 11:52:00","150.402","150.63","150.16","149.74","7.5"
"26/06/2016 11:53:00","149.524","150.64","150.21","149.7","7.5"
"26/06/2016 11:54:00","149.495","150.51","150.14","149.7","7.5"
"26/06/2016 11:55:00","149.651","150.51","150.31","150.08","7.51"
"26/06/2016 11:56:00","149.815","150.49","150.16","150.41","7.51"
"26/06/2016 11:57:00","149.668","150.61","150.14","149.76","7.51"
"26/06/2016 11:58:00","149.689","150.55","150.12","149.67","7.51"
"26/06/2016 11:59:00","149.384","150.53","150.02","149.67","7.51"
"26/06/2016 12:00:00","149.026","150.04","150.03","149.75","7.51"
"26/06/2016 12:01:00","149.766","150.63","150.27","150.29","7.51"
"26/06/2016 12:02:00","149.636","150.64","150.14","149.78","7.52"
"26/06/2016 12:03:00","149.59","150.43","150.18","149.74","7.52"
"26/06/2016 12:04:00","149.609","150.53","150.19","149.73","7.52"
"26/06/2016 12:05:00","149.603","150.52","150.2","150.18","7.52"
"26/06/2016 12:06:00","150.231","150.64","150.34","151.31","7.52"
"26/06/2016 12:07:00","149.988","150.51","150.32","150.63","7.52"
"26/06/2016 12:08:00","149.724","150.58","150.2","149.82","7.52"
"26/06/2016 12:09:00","149.615","150.54","150.23","149.81","7.53"
"26/06/2016 12:10:00","149.387","150.47","150.1","149.74","7.53"
"26/06/2016 12:11:00","149.66","150.43","150.24","150.33","7.53"
"26/06/2016 12:12:00","149.689","150.57","150.18","149.67","7.53"
"26/06/2016 12:13:00","149.749","150.57","150.2","149.73","7.53"
"26/06/2016 12:14:00","149.646","150.51","150.1","149.75","7.53"
"26/06/2016 12:15:00","149.638","150.61","150.22","149.72","7.53"
"26/06/2016 12:16:00","149.482","150.43","150.11","149.68","7.53"
"26/06/2016 12:17:00","149.576","150.52","150.28","149.88","7.52"
"26/06/2016 12:18:00","150.184","150.59","150.32","151.12","7.52"
"26/06/2016 12:19:00","149.096","150.27","149.89","149.76","7.52"
"26/06/2016 12:20:00","149.92","150.46","150.31","150.54","7.51"
"26/06/2016 12:21:00","149.867","150.51","150.22","150.83","7.5"
"26/06/2016 12:22:00","149.533","150.55","150.19","149.79","7.5"
"26/06/2016 12:23:00","148.779","150.61","150.29","150.31","7.49"
"26/06/2016 12:24:00","148.177","150.54","150.25","150.67","7.49"
"26/06/2016 12:25:00","147.551","150.54","150.14","149.92","7.48"
"26/06/2016 12:26:00","146.794","150.61","150.11","150.58","7.47"
"26/06/2016 12:27:00","146.431","150.54","150.35","150.89","7.47"
"26/06/2016 12:28:00","146.324","150.51","150.21","150.7","7.47"
"26/06/2016 12:29:00","146.327","150.62","150.32","150.27","7.46"
"26/06/2016 12:30:00","146.476","150.92","150.54","150.97","7.46"
"26/06/2016 12:31:00","146.65","150.74","150.54","150.92","7.46"
"26/06/2016 12:32:00","146.655","150.48","150.2","151.23","7.46"
"26/06/2016 12:33:00","146.803","150.53","150.2","150.0","7.46"
"26/06/2016 12:34:00","146.986","150.54","150.22","149.85","7.46"
"26/06/2016 12:35:00","146.96","150.63","150.16","149.7","7.47"
"26/06/2016 12:36:00","147.295","150.53","150.17","150.63","7.47"
"26/06/2016 12:37:00","147.537","150.58","150.09","149.88","7.47"
"26/06/2016 12:38:00","147.572","150.6","150.23","149.75","7.47"
"26/06/2016 12:39:00","147.788","150.55","150.15","149.73","7.47"
"26/06/2016 12:40:00","148.029","150.5","150.18","149.67","7.48"
"26/06/2016 12:41:00","148.238","150.54","150.23","150.05","7.48"
"26/06/2016 12:42:00","148.144","150.62","150.13","149.88","7.48"
"26/06/2016 12:43:00","148.017","150.58","150.15","149.73","7.48"
"26/06/2016 12:44:00","147.914","150.49","150.08","149.72","7.48"
"26/06/2016 12:45:00","148.143","150.52","150.03","149.66","7.49"
"26/06/2016 12:46:00","148.905","150.57","150.21","149.75","7.49"
"26/06/2016 12:47:00","149.152","150.48","150.43","149.9","7.49"
"26/06/2016 12:48:00","149.203","150.5","149.93","150.0","7.49"
"26/06/2016 12:49:00","149.355","150.47","150.29","149.86","7.5"
"26/06/2016 12:50:00","149.839","150.52","150.29","150.17","7.5"
"26/06/2016 12:51:00","150.181","150.51","150.2","150.02","7.5"
"26/06/2016 12:52:00","150.211","150.49","150.17","149.77","7.5"
"26/06/2016 12:53:00","150.03","150.58","150.19","150.64","7.51"
"26/06/2016 12:54:00","149.711","150.53","150.22","150.0","7.51"
"26/06/2016 12:55:00","149.548","150.51","150.36","149.76","7.51"
"26/06/2016 12:56:00","149.467","150.54","150.36","150.45","7.51"
"26/06/2016 12:57:00","149.328","150.58","150.39","150.97","7.51"
"26/06/2016 12:58:00","149.289","150.55","150.17","150.12","7.51"
"26/06/2016 12:59:00","149.497","150.48","150.18","150.02","7.51"
"26/06/2016 13:00:00","149.623","150.57","150.4","150.48","7.51"
"26/06/2016 13:01:00","149.794","150.53","150.44","151.16","7.51"
"26/06/2016 13:02:00","149.805","150.61","150.26","151.65","7.51"
"26/06/2016 13:03:00","150.313","150.69","150.65","151.16","7.51"
"26/06/2016 13:04:00","151.123","150.64","150.54","151.02","7.51"
"26/06/2016 13:05:00","151.367","150.81","150.57","150.82","7.51"
"26/06/2016 13:06:00","150.324","150.57","150.5","150.95","7.51"
"26/06/2016 13:07:00","149.678","150.53","150.18","150.21","7.51"
"26/06/2016 13:08:00","149.692","150.68","150.24","149.8","7.51"
"26/06/2016 13:09:00","150.271","150.69","150.36","149.98","7.51"
"26/06/2016 13:10:00","149.876","150.54","150.23","150.22","7.51"
"26/06/2016 13:11:00","149.922","150.54","150.27","150.32","7.51"
"26/06/2016 13:12:00","149.812","150.57","150.2","150.57","7.51"
"26/06/2016 13:13:00","149.545","150.54","150.14","150.44","7.5"
"26/06/2016 13:14:00","149.588","150.55","150.18","150.28","7.5"
"26/06/2016 13:15:00","149.375","150.75","150.41","151.43","7.5"
"26/06/2016 13:16:00","148.95","150.75","150.44","151.13","7.5"
"26/06/2016 13:17:00","148.641","150.79","150.81","151.26","7.5"
"26/06/2016 13:18:00","148.618","150.6","150.31","151.39","7.5"
"26/06/2016 13:19:00","148.57","150.58","150.49","151.02","7.5"
"26/06/2016 13:20:00","148.26","150.76","150.63","151.36","7.5"
"26/06/2016 13:21:00","148.023","150.76","150.67","151.14","7.49"
"26/06/2016 13:22:00","147.924","150.53","150.33","151.14","7.5"
"26/06/2016 13:23:00","148.16","150.98","150.94","151.18","7.5"
"26/06/2016 13:24:00","148.693","150.56","150.18","151.18","7.5"
"26/06/2016 13:25:00","149.332","150.42","150.12","149.88","7.5"
"26/06/2016 13:26:00","149.76","150.56","150.14","149.7","7.5"
"26/06/2016 13:27:00","150.112","150.62","150.19","149.74","7.5"
"26/06/2016 13:28:00","150.315","150.54","150.14","150.16","7.5"
"26/06/2016 13:29:00","149.855","150.58","150.27","149.95","7.5"
"26/06/2016 13:30:00","149.56","150.68","150.25","150.34","7.5"
"26/06/2016 13:31:00","149.363","150.66","150.27","150.93","7.5"
"26/06/2016 13:32:00","149.381","150.58","150.47","151.28","7.5"
"26/06/2016 13:33:00","149.748","150.57","150.31","151.19","7.5"
"26/06/2016 13:34:00","149.633","150.68","150.46","150.94","7.5"
"26/06/2016 13:35:00","149.714","150.56","150.14","149.79","7.5"
"26/06/2016 13:36:00","150.458","150.64","150.19","150.61","7.5"
"26/06/2016 13:37:00","150.433","150.56","150.16","149.67","7.5"
"26/06/2016 13:38:00","149.654","150.48","150.1","149.81","7.5"
"26/06/2016 13:39:00","149.656","150.41","150.14","149.67","7.5"
"26/06/2016 13:40:00","149.654","150.37","150.26","149.82","7.5"
"26/06/2016 13:41:00","149.605","150.49","150.2","149.68","7.5"
"26/06/2016 13:42:00","149.642","150.58","150.29","150.48","7.49"
"26/06/2016 13:43:00","149.453","150.56","150.3","150.89","7.49"
"26/06/2016 13:44:00","149.049","150.55","150.54","151.6","7.49"
"26/06/2016 13:45:00","148.815","150.78","150.83","151.84","7.49"
"26/06/2016 13:46:00","148.767","150.83","150.46","150.82","7.49"
"26/06/2016 13:47:00","148.496","150.33","150.19","150.33","7.49"
"26/06/2016 13:48:00","148.036","150.52","150.68","151.3","7.48"
"26/06/2016 13:49:00","147.736","150.86","150.19","149.9","7.48"
"26/06/2016 13:50:00","147.806","150.63","150.16","149.67","7.48"
"26/06/2016 13:51:00","147.967","150.5","150.2","150.06","7.48"
"26/06/2016 13:52:00","148.113","150.49","150.47","151.25","7.48"
"26/06/2016 13:53:00","148.331","150.88","150.34","150.67","7.48"
"26/06/2016 13:54:00","148.515","150.96","150.83","151.88","7.48"
"26/06/2016 13:55:00","148.664","150.54","150.28","149.96","7.48"
"26/06/2016 13:56:00","148.874","150.4","150.04","149.75","7.48"
"26/06/2016 13:57:00","149.222","150.43","150.04","149.64","7.48"
"26/06/2016 13:58:00","149.245","150.46","150.2","149.99","7.48"
"26/06/2016 13:59:00","149.028","150.62","150.31","151.13","7.48"
"26/06/2016 14:00:00","148.813","150.42","150.18","149.95","7.48"
"26/06/2016 14:01:00","148.638","150.55","150.27","150.11","7.49"
"26/06/2016 14:02:00","148.338","150.65","150.48","151.05","7.49"
"26/06/2016 14:03:00","148.288","150.7","150.25","150.61","7.49"
"26/06/2016 14:04:00","148.271","150.44","150.41","150.86","7.49"
"26/06/2016 14:05:00","148.45","150.63","150.24","150.89","7.49"
"26/06/2016 14:06:00","148.908","150.75","150.38","150.92","7.49"
"26/06/2016 14:07:00","149.349","150.55","150.16","150.38","7.49"
"26/06/2016 14:08:00","149.912","150.67","150.39","150.34","7.49"
"26/06/2016 14:09:00","150.389","150.77","150.57","150.89","7.5"
"26/06/2016 14:10:00","151.273","150.78","150.51","151.17","7.5"
"26/06/2016 14:11:00","151.222","150.82","150.48","151.26","7.5"
"26/06/2016 14:12:00","149.697","150.6","150.24","151.19","7.5"
"26/06/2016 14:13:00","149.971","150.53","150.29","150.51","7.5"
"26/06/2016 14:14:00","149.319","150.43","150.09","150.34","7.5"
"26/06/2016 14:15:00","149.426","150.62","150.27","150.09","7.49"
"26/06/2016 14:16:00","149.23","150.48","150.13","149.67","7.49"
"26/06/2016 14:17:00","148.591","150.5","150.07","149.67","7.49"
"26/06/2016 14:18:00","148.289","150.48","150.16","149.7","7.49"
"26/06/2016 14:19:00","148.191","150.55","150.16","149.76","7.48"
"26/06/2016 14:20:00","147.815","150.56","150.3","149.88","7.48"
"26/06/2016 14:21:00","147.61","150.63","150.22","149.8","7.48"
"26/06/2016 14:22:00","147.849","150.65","150.17","150.21","7.48"
"26/06/2016 14:23:00","147.89","150.67","150.25","150.06","7.48"
"26/06/2016 14:24:00","147.971","150.6","150.18","149.7","7.47"
"26/06/2016 14:25:00","148.145","150.52","150.22","150.6","7.47"
"26/06/2016 14:26:00","148.144","150.78","150.38","151.3","7.47"
"26/06/2016 14:27:00","148.204","150.67","150.15","150.31","7.47"
"26/06/2016 14:28:00","148.253","150.58","150.18","149.72","7.47"
"26/06/2016 14:29:00","147.976","150.53","150.19","149.73","7.47"
"26/06/2016 14:30:00","147.696","150.53","150.23","149.74","7.47"
"26/06/2016 14:31:00","147.643","150.53","150.24","149.88","7.47"
"26/06/2016 14:32:00","147.49","150.49","150.22","150.13","7.47"
"26/06/2016 14:33:00","147.317","150.57","150.12","149.9","7.47"
"26/06/2016 14:34:00","147.475","150.53","150.18","149.64","7.47"
"26/06/2016 14:35:00","147.579","150.53","150.18","149.72","7.47"
"26/06/2016 14:36:00","147.643","150.56","150.21","149.77","7.47"
"26/06/2016 14:37:00","147.727","150.54","150.26","149.78","7.47"
"26/06/2016 14:38:00","147.999","150.45","150.15","149.76","7.48"
"26/06/2016 14:39:00","148.135","150.63","150.21","149.67","7.48"
"26/06/2016 14:40:00","148.211","150.61","150.22","149.74","7.48"
"26/06/2016 14:41:00","148.234","150.38","150.43","151.05","7.48"
"26/06/2016 14:42:00","148.31","150.62","150.26","150.17","7.48"
"26/06/2016 14:43:00","148.404","150.6","150.12","149.78","7.48"
"26/06/2016 14:44:00","148.216","150.54","150.25","149.68","7.49"
"26/06/2016 14:45:00","147.803","150.45","150.15","149.71","7.49"
"26/06/2016 14:46:00","147.973","150.62","150.2","149.72","7.49"
"26/06/2016 14:47:00","148.359","150.56","150.07","149.79","7.49"
"26/06/2016 14:48:00","148.717","150.59","150.25","149.78","7.49"
"26/06/2016 14:49:00","149.197","150.56","150.23","149.75","7.49"
"26/06/2016 14:50:00","148.988","150.56","150.19","149.73","7.49"
"26/06/2016 14:51:00","148.596","150.55","150.17","149.73","7.49"
"26/06/2016 14:52:00","148.727","150.57","150.26","150.17","7.5"
"26/06/2016 14:53:00","149.055","150.6","150.23","149.88","7.5"
"26/06/2016 14:54:00","149.155","150.62","150.23","149.63","7.5"
"26/06/2016 14:55:00","149.125","150.6","150.26","149.81","7.5"
"26/06/2016 14:56:00","148.916","150.15","149.63","149.59","7.5"
"26/06/2016 14:57:00","149.182","150.39","150.24","149.44","7.5"
"26/06/2016 14:58:00","149.406","150.58","150.14","149.43","7.5"
"26/06/2016 14:59:00","149.783","150.62","150.16","149.86","7.51"
"26/06/2016 15:00:00","149.988","150.54","150.24","149.78","7.51"
"26/06/2016 15:01:00","150.605","150.6","150.19","149.11","7.51"
"26/06/2016 15:02:00","150.63","150.65","150.42","149.02","7.51"
"26/06/2016 15:03:00","149.68","150.58","150.21","148.83","7.51"
"26/06/2016 15:04:00","149.435","150.47","150.19","148.94","7.51"
"26/06/2016 15:05:00","149.733","150.53","150.17","149.18","7.51"
"26/06/2016 15:06:00","149.789","150.55","150.28","149.37","7.52"
"26/06/2016 15:07:00","149.849","150.61","150.23","149.6","7.52"
"26/06/2016 15:08:00","149.958","150.58","150.24","149.64","7.52"
"26/06/2016 15:09:00","149.646","150.59","150.16","150.0","7.52"
"26/06/2016 15:10:00","149.432","150.46","150.14","150.26","7.52"
"26/06/2016 15:11:00","149.625","150.6","150.15","150.0","7.52"
"26/06/2016 15:12:00","149.71","150.65","150.29","149.52","7.52"
"26/06/2016 15:13:00","149.703","150.61","150.22","149.83","7.52"
"26/06/2016 15:14:00","149.798","150.65","150.22","149.87","7.53"
"26/06/2016 15:15:00","149.755","150.56","150.2","149.72","7.53"
"26/06/2016 15:16:00","149.653","150.59","150.23","149.95","7.53"
"26/06/2016 15:17:00","149.895","150.71","150.17","150.27","7.53"
"26/06/2016 15:18:00","150.305","150.66","150.37","150.22","7.53"
"26/06/2016 15:19:00","150.29","150.62","150.29","150.24","7.53"
"26/06/2016 15:20:00","149.689","150.61","150.26","150.34","7.53"
"26/06/2016 15:21:00","149.699","150.6","150.11","150.2","7.53"
"26/06/2016 15:22:00","149.82","150.53","150.08","150.24","7.53"
"26/06/2016 15:23:00","149.753","150.54","150.46","150.37","7.52"
"26/06/2016 15:24:00","149.679","150.59","150.14","150.47","7.52"
"26/06/2016 15:25:00","149.6","150.62","150.16","149.79","7.52"
"26/06/2016 15:26:00","149.34","150.46","150.13","149.86","7.51"
"26/06/2016 15:27:00","148.998","150.49","150.22","150.19","7.51"
"26/06/2016 15:28:00","148.987","150.56","150.22","150.1","7.51"
"26/06/2016 15:29:00","148.939","150.53","150.19","150.29","7.5"
"26/06/2016 15:30:00","149.132","150.44","150.07","149.73","7.5"
"26/06/2016 15:31:00","148.954","150.47","150.12","149.77","7.5"
"26/06/2016 15:32:00","148.737","150.34","150.07","149.73","7.5"
"26/06/2016 15:33:00","148.801","150.53","150.33","150.5","7.5"
"26/06/2016 15:34:00","148.891","150.59","150.18","149.8","7.5"
"26/06/2016 15:35:00","149.025","150.33","150.08","149.72","7.5"
"26/06/2016 15:36:00","149.039","150.6","150.22","149.78","7.5"
"26/06/2016 15:37:00","149.055","150.62","150.25","149.89","7.51"
"26/06/2016 15:38:00","149.111","150.46","150.25","149.76","7.51"
"26/06/2016 15:39:00","148.971","150.58","150.2","149.85","7.51"
"26/06/2016 15:40:00","148.897","150.53","150.22","149.88","7.51"
"26/06/2016 15:41:00","149.04","150.64","150.12","149.68","7.51"
"26/06/2016 15:42:00","149.034","150.45","150.04","149.71","7.51"
"26/06/2016 15:43:00","148.807","150.6","150.09","149.71","7.51"
"26/06/2016 15:44:00","148.758","150.64","150.18","149.74","7.51"
"26/06/2016 15:45:00","149.128","150.7","150.11","149.7","7.51"
"26/06/2016 15:46:00","149.647","150.51","150.13","149.73","7.51"
"26/06/2016 15:47:00","149.616","150.69","150.17","149.73","7.51"
"26/06/2016 15:48:00","149.019","150.44","149.91","149.83","7.51"
"26/06/2016 15:49:00","148.542","150.36","150.26","149.83","7.5"
"26/06/2016 15:50:00","148.557","150.7","150.33","150.62","7.5"
"26/06/2016 15:51:00","148.872","150.3","149.89","150.12","7.5"
"26/06/2016 15:52:00","148.92","150.53","150.26","149.71","7.5"
"26/06/2016 15:53:00","149.301","150.6","150.2","149.74","7.5"
"26/06/2016 15:54:00","149.378","150.53","150.2","149.85","7.5"
"26/06/2016 15:55:00","149.43","150.49","150.09","150.17","7.5"
"26/06/2016 15:56:00","149.697","150.49","150.18","150.85","7.5"
"26/06/2016 15:57:00","149.832","150.52","150.38","150.89","7.5"
"26/06/2016 15:58:00","149.799","150.5","150.24","149.76","7.5"
"26/06/2016 15:59:00","149.805","150.56","150.15","149.72","7.5"
"26/06/2016 16:00:00","149.628","150.67","150.14","149.78","7.5"
"26/06/2016 16:01:00","149.615","150.61","150.16","149.73","7.5"
"26/06/2016 16:02:00","149.824","150.58","150.35","149.74","7.5"
"26/06/2016 16:03:00","149.959","150.66","150.18","149.72","7.51"
"26/06/2016 16:04:00","149.734","150.56","150.1","149.72","7.51"
"26/06/2016 16:05:00","149.492","150.38","150.19","149.86","7.51"
"26/06/2016 16:06:00","149.284","150.42","150.12","149.76","7.51"
"26/06/2016 16:07:00","149.423","150.59","150.32","149.78","7.51"
"26/06/2016 16:08:00","149.613","150.76","150.22","149.76","7.51"
"26/06/2016 16:09:00","149.896","150.65","150.11","149.78","7.51"
"26/06/2016 16:10:00","149.939","150.4","150.15","149.7","7.51"
"26/06/2016 16:11:00","150.017","150.29","150.21","149.88","7.51"
"26/06/2016 16:12:00","150.16","150.54","150.19","150.07","7.51"
"26/06/2016 16:13:00","149.639","150.61","150.19","150.71","7.5"
"26/06/2016 16:14:00","149.013","151.12","150.23","150.22","7.5"
"26/06/2016 16:15:00","148.161","150.88","150.29","150.22","7.5"
"26/06/2016 16:16:00","147.687","150.64","150.35","150.67","7.49"
"26/06/2016 16:17:00","147.536","150.81","150.32","150.9","7.49"
"26/06/2016 16:18:00","147.337","150.63","150.59","151.26","7.49"
"26/06/2016 16:19:00","146.956","150.61","150.18","151.41","7.48"
"26/06/2016 16:20:00","146.756","150.47","150.06","150.31","7.48"
"26/06/2016 16:21:00","146.896","150.63","150.22","149.73","7.48"
"26/06/2016 16:22:00","147.096","150.68","150.21","149.67","7.48"
"26/06/2016 16:23:00","147.251","150.65","150.08","149.85","7.48"
"26/06/2016 16:24:00","147.303","150.54","150.17","149.79","7.48"
"26/06/2016 16:25:00","147.526","150.54","150.11","149.79","7.48"
"26/06/2016 16:26:00","147.927","150.45","150.0","149.77","7.48"
"26/06/2016 16:27:00","148.2","150.59","149.73","150.17","7.48"
"26/06/2016 16:28:00","148.221","150.62","149.76","150.23","7.47"
"26/06/2016 16:29:00","148.188","150.6","150.12","150.4","7.47"
"26/06/2016 16:30:00","147.864","150.66","150.18","150.46","7.47"
"26/06/2016 16:31:00","147.725","150.63","150.08","150.54","7.46"
"26/06/2016 16:32:00","147.661","150.49","149.83","150.31","7.46"
"26/06/2016 16:33:00","147.821","150.48","149.74","149.75","7.46"
"26/06/2016 16:34:00","148.072","150.5","149.72","149.79","7.46"
"26/06/2016 16:35:00","148.138","150.72","149.57","149.78","7.45"
"26/06/2016 16:36:00","148.322","150.81","149.3","149.8","7.46"
"26/06/2016 16:37:00","148.38","150.61","149.53","149.77","7.46"
"26/06/2016 16:38:00","148.362","150.38","149.35","149.82","7.46"
"26/06/2016 16:39:00","148.668","150.63","149.52","149.74","7.46"
"26/06/2016 16:40:00","149.218","150.58","149.78","149.68","7.46"
"26/06/2016 16:41:00","149.282","150.52","149.8","149.99","7.46"
"26/06/2016 16:42:00","148.874","150.57","149.68","149.91","7.47"
"26/06/2016 16:43:00","148.902","150.51","149.58","149.75","7.47"
"26/06/2016 16:44:00","148.737","150.59","149.75","149.71","7.47"
"26/06/2016 16:45:00","148.78","150.36","149.78","149.81","7.47"
"26/06/2016 16:46:00","148.763","150.66","149.71","149.82","7.47"
"26/06/2016 16:47:00","148.493","150.64","150.17","149.73","7.47"
"26/06/2016 16:48:00","148.273","150.51","150.54","149.88","7.47"
"26/06/2016 16:49:00","148.283","150.56","150.56","149.79","7.47"
"26/06/2016 16:50:00","148.434","150.66","150.55","149.73","7.47"
"26/06/2016 16:51:00","148.483","150.46","150.48","149.84","7.47"
"26/06/2016 16:52:00","148.641","150.58","150.6","149.75","7.47"
"26/06/2016 16:53:00","148.419","150.62","150.52","149.74","7.47"
"26/06/2016 16:54:00","148.552","150.63","150.12","149.77","7.47"
"26/06/2016 16:55:00","148.57","150.58","150.24","149.77","7.47"
"26/06/2016 16:56:00","148.428","150.32","149.97","149.73","7.47"
"26/06/2016 16:57:00","148.59","150.26","150.23","149.7","7.47"
"26/06/2016 16:58:00","148.765","150.75","150.16","149.73","7.46"
"26/06/2016 16:59:00","149.005","150.96","150.19","149.74","7.46"
"26/06/2016 17:00:00","149.163","150.61","150.12","149.78","7.46"
